%YAML 1.1
%TAG !u! tag:unity3d.com,2011:
--- !u!74 &7400000
AnimationClip:
  m_ObjectHideFlags: 0
  m_CorrespondingSourceObject: {fileID: 0}
  m_PrefabInstance: {fileID: 0}
  m_PrefabAsset: {fileID: 0}
  m_Name: Thunder1Idle
  serializedVersion: 6
  m_Legacy: 0
  m_Compressed: 0
  m_UseHighQualityCurve: 1
  m_RotationCurves: []
  m_CompressedRotationCurves: []
  m_EulerCurves: []
  m_PositionCurves: []
  m_ScaleCurves: []
  m_FloatCurves: []
  m_PPtrCurves:
  - curve:
    - time: 0
      value: {fileID: 21300000, guid: fce1458114038d8489c8a7b737ca3eea, type: 3}
    - time: 0.083333336
      value: {fileID: 21300000, guid: 17e03abad43d3b249adb4fe8aa4481c3, type: 3}
    - time: 0.16666667
      value: {fileID: 21300000, guid: 79076557c2f1263468da4db8661e1a0a, type: 3}
    - time: 0.25
      value: {fileID: 21300000, guid: 37732aa6128176542882dc72d2cbe29c, type: 3}
    - time: 0.33333334
      value: {fileID: 21300000, guid: ae2f1abc124958c48a38d390aee4deaa, type: 3}
    - time: 0.41666666
      value: {fileID: 21300000, guid: 2002f064c20f0324c97f9fa382f969a5, type: 3}
    - time: 0.5
      value: {fileID: 21300000, guid: 079a7a41e9777684d8161597e3615ef7, type: 3}
    - time: 0.5833333
      value: {fileID: 21300000, guid: 17c1c30b3e6eb9c4bb1ef64a0987d654, type: 3}
    - time: 0.6666667
      value: {fileID: 21300000, guid: ba2280d33c050db429107036d8d4b56e, type: 3}
    - time: 0.75
      value: {fileID: 21300000, guid: f59c0d2bb04e769439f149912a82de67, type: 3}
    - time: 0.8333333
      value: {fileID: 21300000, guid: 7827f991fcf0b4149b47bcb3e04af98b, type: 3}
    - time: 0.9166667
      value: {fileID: 21300000, guid: 02ef6541a348c884381046d419068ba1, type: 3}
    - time: 1
      value: {fileID: 21300000, guid: 2b89d2f162c59c446a62d06cc8c9be66, type: 3}
    - time: 1.0833334
      value: {fileID: 21300000, guid: 8f2c3f45db40e084cae8809b66ebc484, type: 3}
    - time: 1.1666666
      value: {fileID: 21300000, guid: 3fbc28e6c5d0c654bb7bfc8bfa5c6151, type: 3}
    - time: 1.25
      value: {fileID: 21300000, guid: 20090b7e99f317544a055fef7d692736, type: 3}
    - time: 1.3333334
      value: {fileID: 21300000, guid: 4e8218d8138396d45a8acf359adce5f0, type: 3}
    - time: 1.4166666
      value: {fileID: 21300000, guid: 698002137146cfb42955b9f5951f1dfc, type: 3}
    - time: 1.5
      value: {fileID: 21300000, guid: f26b492206a85514ea296757d8eb1609, type: 3}
    - time: 1.5833334
      value: {fileID: 21300000, guid: c3b8edddf5ea1044282c1b837062965e, type: 3}
    - time: 1.6666666
      value: {fileID: 21300000, guid: 15ed46feb47f6594a873d48d23c763ff, type: 3}
    - time: 1.75
      value: {fileID: 21300000, guid: 13e28f36cb492824ea17945f6687aa44, type: 3}
    - time: 1.8333334
      value: {fileID: 21300000, guid: 5b2242a560c71c441aba2f2d0c249e4e, type: 3}
    - time: 1.9166666
      value: {fileID: 21300000, guid: 866522f161d2b7748a90eb16cbb514c6, type: 3}
    - time: 2
      value: {fileID: 21300000, guid: 676c6ce28be633245acaab67cf79e7e0, type: 3}
    - time: 2.0833333
      value: {fileID: 21300000, guid: 1ae6b165da21d974dbf533a9ed3d3392, type: 3}
    - time: 2.1666667
      value: {fileID: 21300000, guid: e84eceb8d60623f4b822eb7d2f0f44f9, type: 3}
    - time: 2.25
      value: {fileID: 21300000, guid: c3dad44f8c3e9e54db1127ece6d36b92, type: 3}
    - time: 2.3333333
      value: {fileID: 21300000, guid: fffe1b6f6ce037345be7107c92bac0c5, type: 3}
    - time: 2.4166667
      value: {fileID: 21300000, guid: f9d0dfbc11c32374492d32c8172f4031, type: 3}
    attribute: m_Sprite
    path: 
    classID: 114
    script: {fileID: 11500000, guid: fe87c0e1cc204ed48ad3b37840f39efc, type: 3}
  m_SampleRate: 12
  m_WrapMode: 0
  m_Bounds:
    m_Center: {x: 0, y: 0, z: 0}
    m_Extent: {x: 0, y: 0, z: 0}
  m_ClipBindingConstant:
    genericBindings:
    - serializedVersion: 2
      path: 0
      attribute: 2015549526
      script: {fileID: 11500000, guid: fe87c0e1cc204ed48ad3b37840f39efc, type: 3}
      typeID: 114
      customType: 0
      isPPtrCurve: 1
    pptrCurveMapping:
    - {fileID: 21300000, guid: fce1458114038d8489c8a7b737ca3eea, type: 3}
    - {fileID: 21300000, guid: 17e03abad43d3b249adb4fe8aa4481c3, type: 3}
    - {fileID: 21300000, guid: 79076557c2f1263468da4db8661e1a0a, type: 3}
    - {fileID: 21300000, guid: 37732aa6128176542882dc72d2cbe29c, type: 3}
    - {fileID: 21300000, guid: ae2f1abc124958c48a38d390aee4deaa, type: 3}
    - {fileID: 21300000, guid: 2002f064c20f0324c97f9fa382f969a5, type: 3}
    - {fileID: 21300000, guid: 079a7a41e9777684d8161597e3615ef7, type: 3}
    - {fileID: 21300000, guid: 17c1c30b3e6eb9c4bb1ef64a0987d654, type: 3}
    - {fileID: 21300000, guid: ba2280d33c050db429107036d8d4b56e, type: 3}
    - {fileID: 21300000, guid: f59c0d2bb04e769439f149912a82de67, type: 3}
    - {fileID: 21300000, guid: 7827f991fcf0b4149b47bcb3e04af98b, type: 3}
    - {fileID: 21300000, guid: 02ef6541a348c884381046d419068ba1, type: 3}
    - {fileID: 21300000, guid: 2b89d2f162c59c446a62d06cc8c9be66, type: 3}
    - {fileID: 21300000, guid: 8f2c3f45db40e084cae8809b66ebc484, type: 3}
    - {fileID: 21300000, guid: 3fbc28e6c5d0c654bb7bfc8bfa5c6151, type: 3}
    - {fileID: 21300000, guid: 20090b7e99f317544a055fef7d692736, type: 3}
    - {fileID: 21300000, guid: 4e8218d8138396d45a8acf359adce5f0, type: 3}
    - {fileID: 21300000, guid: 698002137146cfb42955b9f5951f1dfc, type: 3}
    - {fileID: 21300000, guid: f26b492206a85514ea296757d8eb1609, type: 3}
    - {fileID: 21300000, guid: c3b8edddf5ea1044282c1b837062965e, type: 3}
    - {fileID: 21300000, guid: 15ed46feb47f6594a873d48d23c763ff, type: 3}
    - {fileID: 21300000, guid: 13e28f36cb492824ea17945f6687aa44, type: 3}
    - {fileID: 21300000, guid: 5b2242a560c71c441aba2f2d0c249e4e, type: 3}
    - {fileID: 21300000, guid: 866522f161d2b7748a90eb16cbb514c6, type: 3}
    - {fileID: 21300000, guid: 676c6ce28be633245acaab67cf79e7e0, type: 3}
    - {fileID: 21300000, guid: 1ae6b165da21d974dbf533a9ed3d3392, type: 3}
    - {fileID: 21300000, guid: e84eceb8d60623f4b822eb7d2f0f44f9, type: 3}
    - {fileID: 21300000, guid: c3dad44f8c3e9e54db1127ece6d36b92, type: 3}
    - {fileID: 21300000, guid: fffe1b6f6ce037345be7107c92bac0c5, type: 3}
    - {fileID: 21300000, guid: f9d0dfbc11c32374492d32c8172f4031, type: 3}
  m_AnimationClipSettings:
    serializedVersion: 2
    m_AdditiveReferencePoseClip: {fileID: 0}
    m_AdditiveReferencePoseTime: 0
    m_StartTime: 0
    m_StopTime: 2.5
    m_OrientationOffsetY: 0
    m_Level: 0
    m_CycleOffset: 0
    m_HasAdditiveReferencePose: 0
    m_LoopTime: 0
    m_LoopBlend: 0
    m_LoopBlendOrientation: 0
    m_LoopBlendPositionY: 0
    m_LoopBlendPositionXZ: 0
    m_KeepOriginalOrientation: 0
    m_KeepOriginalPositionY: 1
    m_KeepOriginalPositionXZ: 0
    m_HeightFromFeet: 0
    m_Mirror: 0
  m_EditorCurves: []
  m_EulerEditorCurves: []
  m_HasGenericRootTransform: 0
  m_HasMotionFloatCurves: 0
  m_Events: []
